GoodBadBeaver/Binaries/Win64/GoodBadBeaver.exe	2022-02-02T07:47:53.273Z
GoodBadBeaver/Binaries/Win64/OpenImageDenoise.dll	2022-01-14T19:17:53.702Z
GoodBadBeaver/Binaries/Win64/tbb12.dll	2022-01-14T19:17:53.703Z
Engine/Extras/Redist/en-us/UE4PrereqSetup_x64.exe	2022-01-14T19:12:28.030Z
Engine/Binaries/ThirdParty/DbgHelp/dbghelp.dll	2022-01-14T19:07:51.538Z
Engine/Binaries/ThirdParty/PhysX3/Win64/VS2015/PxFoundationPROFILE_x64.dll	2022-01-14T19:08:10.925Z
Engine/Binaries/ThirdParty/PhysX3/Win64/VS2015/PxPvdSDKPROFILE_x64.dll	2022-01-14T19:08:10.934Z
Engine/Binaries/ThirdParty/PhysX3/Win64/VS2015/PhysX3PROFILE_x64.dll	2022-01-14T19:08:10.490Z
Engine/Binaries/ThirdParty/PhysX3/Win64/VS2015/PhysX3CookingPROFILE_x64.dll	2022-01-14T19:08:10.479Z
Engine/Binaries/ThirdParty/PhysX3/Win64/VS2015/PhysX3CommonPROFILE_x64.dll	2022-01-14T19:08:09.959Z
Engine/Binaries/ThirdParty/PhysX3/Win64/VS2015/APEX_ClothingPROFILE_x64.dll	2022-01-14T19:08:08.075Z
Engine/Binaries/ThirdParty/PhysX3/Win64/VS2015/APEX_LegacyPROFILE_x64.dll	2022-01-14T19:08:08.350Z
Engine/Binaries/ThirdParty/PhysX3/Win64/VS2015/ApexFrameworkPROFILE_x64.dll	2022-01-14T19:08:08.495Z
Engine/Binaries/ThirdParty/PhysX3/Win64/VS2015/NvClothPROFILE_x64.dll	2022-01-14T19:08:08.518Z
Engine/Binaries/ThirdParty/Ogg/Win64/VS2015/libogg_64.dll	2022-01-14T19:08:00.431Z
Engine/Binaries/ThirdParty/Vorbis/Win64/VS2015/libvorbis_64.dll	2022-01-14T19:08:17.927Z
Engine/Binaries/ThirdParty/Vorbis/Win64/VS2015/libvorbisfile_64.dll	2022-01-14T19:08:17.927Z
Engine/Binaries/ThirdParty/NVIDIA/NVaftermath/Win64/GFSDK_Aftermath_Lib.x64.dll	2022-01-14T19:07:59.051Z
Engine/Binaries/ThirdParty/OpenXR/win64/openxr_loader.dll	2022-01-14T19:08:01.064Z
Engine/Binaries/ThirdParty/NVIDIA/GeForceNOW/Win64/GfnRuntimeSdk.dll	2022-01-14T19:07:59.048Z
Engine/Binaries/ThirdParty/Windows/WinPixEventRuntime/x64/WinPixEventRuntime.dll	2022-01-14T19:08:17.950Z
Engine/Binaries/ThirdParty/Windows/XAudio2_9/x64/xaudio2_9redist.dll	2022-01-14T19:08:18.655Z
GoodBadBeaver.exe	2022-02-02T07:49:53.742Z
